<?xml version="1.0" encoding="utf-8"?>
<!-- Generator: Adobe Illustrator 22.0.0, SVG Export Plug-In . SVG Version: 6.00 Build 0)  -->
<svg version="1.1" id="OBJECTS" xmlns="http://www.w3.org/2000/svg" xmlns:xlink="http://www.w3.org/1999/xlink" x="0px" y="0px"
	 viewBox="0 0 55 107.3" style="enable-background:new 0 0 55 107.3;" xml:space="preserve">
<style type="text/css">
	.st0{fill:#0580C4;}
	.st1{fill:#E5F5FF;}
</style>
<path class="st0" d="M38.7,98.6c2.5,0,8.3-0.3,12.3-3.1c2.6-1.8,3.9-4.3,3.9-7.4c0-3.4-1.4-6-4.1-7.9c-4.4-3-10.5-2.6-10.8-2.6
	l0.5,4.1c0,0,4.1-0.2,6.6,1.5c1.5,1,2.3,2.7,2.3,4.8c0,1.9-0.7,3.3-2.2,4.3c-3.3,2.3-9.3,2-9.4,2l-0.4,4.1
	C37.6,98.6,38,98.6,38.7,98.6z"/>
<polygon class="st0" points="44,69.4 4,69.4 9.9,107.3 37.8,107.3 "/>
<path class="st1" d="M24.2,61.1c2.4-1.8,4.4-3.7,6.3-6.1c1.8-2.4,3.5-5.2,4.2-8.7c0.7-3.5,0-7.7-1.9-10.9c-1.9-3.2-4.5-5.5-7-7.4
	c-0.4-0.3-0.6-0.5-0.8-0.6l-0.7-0.6l-1.4-1.2c-0.9-0.8-1.9-1.6-2.7-2.4c-1.7-1.6-3.2-3.3-3.7-4.5c-0.2-0.5,0-0.8,0.3-0.2
	c0.1,0.3,0.2,0.7,0.2,1.1c0,0.4,0,0.6,0.1,0.6c0.1,0.1,0.6-0.4,1.2-0.8c0.7-0.5,1.6-1.1,2.5-1.8c4.4-3,5.6-9,2.6-13.4
	c-3-4.4-9-5.6-13.4-2.6C9.2,2.1,8.6,2.6,8.1,3.1L8,3.3c-1,1.1-2,2.2-3.2,3.6c-1.1,1.4-2.3,3-3.4,5.5c-1.1,2.3-1.8,6.1-1,9.3
	c0.8,3.2,2.4,5.3,3.7,6.8C5.5,30,6.9,31,8.2,31.9c1.3,0.9,2.6,1.7,3.9,2.4c1.3,0.7,2.6,1.4,3.8,2l3.7,1.7c1.9,0.9,3.5,1.9,4.6,3.1
	c1,1.2,1.7,2.4,1.7,4.1c0.1,3.5-2.5,8.2-5.5,11.6L20.4,57c-1,1.2-0.9,3,0.3,4C21.7,61.9,23.1,61.9,24.2,61.1z"/>
</svg>
